module gitlab.com/joelklint/yamlsecrets

go 1.17

require (
	github.com/spf13/cobra v1.2.1
	gopkg.in/yaml.v2 v2.4.0
)

require (
	github.com/inconshreveable/mousetrap v1.0.0 // indirect
	github.com/spf13/pflag v1.0.5 // indirect
)
